(module MOLEX_0367831201 (layer F.Cu) (tedit 5C420985)
  (fp_text reference REF** (at 0 2.4) (layer F.SilkS)
    (effects (font (size 1 1) (thickness 0.15)))
  )
  (fp_text value MOLEX_0367831201 (at 0 -1.5) (layer F.Fab)
    (effects (font (size 1 1) (thickness 0.15)))
  )
  (fp_line (start -18.7 -11.25) (end 18.7 -11.25) (layer F.SilkS) (width 0.15))
  (fp_line (start -18.75 -11.25) (end -18.75 1.5) (layer F.SilkS) (width 0.15))
  (fp_line (start -18.75 1.5) (end 18.75 1.5) (layer F.SilkS) (width 0.15))
  (fp_line (start 18.75 -11.25) (end 18.75 1.5) (layer F.SilkS) (width 0.15))
  (pad 1 thru_hole circle (at -8.75 -3.5) (size 2.5 2.5) (drill 1.45) (layers *.Cu *.Mask))
  (pad 2 thru_hole circle (at -5.25 -3.5) (size 2.5 2.5) (drill 1.45) (layers *.Cu *.Mask))
  (pad 3 thru_hole circle (at -1.75 -3.5) (size 2.5 2.5) (drill 1.45) (layers *.Cu *.Mask))
  (pad 4 thru_hole circle (at 1.75 -3.5) (size 2.5 2.5) (drill 1.45) (layers *.Cu *.Mask))
  (pad 5 thru_hole circle (at 5.25 -3.5) (size 2.5 2.5) (drill 1.45) (layers *.Cu *.Mask))
  (pad 6 thru_hole circle (at 8.75 -3.5) (size 2.5 2.5) (drill 1.45) (layers *.Cu *.Mask))
  (pad 7 thru_hole circle (at -8.75 0) (size 2.5 2.5) (drill 1.45) (layers *.Cu *.Mask))
  (pad 8 thru_hole circle (at -5.25 0) (size 2.5 2.5) (drill 1.45) (layers *.Cu *.Mask))
  (pad 9 thru_hole circle (at -1.75 0) (size 2.5 2.5) (drill 1.45) (layers *.Cu *.Mask))
  (pad 10 thru_hole circle (at 1.75 0) (size 2.5 2.5) (drill 1.45) (layers *.Cu *.Mask))
  (pad 11 thru_hole circle (at 5.25 0) (size 2.5 2.5) (drill 1.45) (layers *.Cu *.Mask))
  (pad 12 thru_hole circle (at 8.75 0) (size 2.5 2.5) (drill 1.45) (layers *.Cu *.Mask))
  (pad "" thru_hole circle (at 15.75 -5.7) (size 4.5 4.5) (drill 4) (layers *.Cu *.Mask))
  (pad "" thru_hole circle (at -15.75 -5.7) (size 4.5 4.5) (drill 4) (layers *.Cu *.Mask))
)
